<?xml version="1.0" encoding="UTF-8"?>
<con:soapui-project id="6f6c8761-6535-4ceb-9c71-c9ce755a0ee2" activeEnvironment="Default" name="REST Project 1" resourceRoot="" soapui-version="5.7.2" abortOnError="false" runType="SEQUENTIAL" xmlns:con="http://eviware.com/soapui/config"><con:settings/><con:interface xsi:type="con:RestService" id="426b06ab-2485-49dd-af65-14785f65d0a9" wadlVersion="http://wadl.dev.java.net/2009/02" name="https://reqres.in" type="rest" xmlns:xsi="http://www.w3.org/2001/XMLSchema-instance"><con:settings/><con:definitionCache type="TEXT" rootPart=""/><con:endpoints><con:endpoint>https://reqres.in</con:endpoint></con:endpoints><con:resource name="Users" path="/api/users" id="d22ce4a1-3918-4f20-8042-7d85acfa9425"><con:settings/><con:parameters><con:parameter><con:name>page</con:name><con:value>2</con:value><con:style>QUERY</con:style><con:default>2</con:default><con:path xsi:nil="true"/><con:description xsi:nil="true"/></con:parameter></con:parameters><con:method name="Users 1" id="73494b91-44a8-43e2-987a-68e3e79ef651" method="GET"><con:settings/><con:parameters/><con:representation type="RESPONSE"><con:mediaType>application/json; charset=utf-8</con:mediaType><con:status>200</con:status><con:params/><con:element xmlns:user="https://reqres.in/api/users">user:Response</con:element></con:representation><con:request name="Request 1" id="77b529c1-dd79-4778-a8ec-3080fea36df9" mediaType="application/json"><con:settings><con:setting id="com.eviware.soapui.impl.wsdl.WsdlRequest@request-headers">&lt;xml-fragment/></con:setting></con:settings><con:endpoint>https://reqres.in</con:endpoint><con:request/><con:originalUri>https://reqres.in/api/users</con:originalUri><con:credentials><con:authType>No Authorization</con:authType></con:credentials><con:jmsConfig JMSDeliveryMode="PERSISTENT"/><con:jmsPropertyConfig/><con:parameters><entry key="page" value="2" xmlns="http://eviware.com/soapui/config"/></con:parameters><con:parameterOrder><con:entry>page</con:entry></con:parameterOrder></con:request></con:method></con:resource></con:interface><con:interface xsi:type="con:RestService" id="b99e91db-f02d-47fd-879f-03d438bdbe71" wadlVersion="http://wadl.dev.java.net/2009/02" name="https://reqres.in" type="rest" xmlns:xsi="http://www.w3.org/2001/XMLSchema-instance"><con:settings/><con:definitionCache type="TEXT" rootPart=""/><con:endpoints><con:endpoint>https://reqres.in</con:endpoint></con:endpoints><con:resource name="2" path="/api/users/2" id="00da7b11-6c9b-44f9-8efe-ec485df52021"><con:settings/><con:parameters/><con:method name="2 1" id="670cd3be-f2b8-49cf-95da-355373430183" method="GET"><con:settings/><con:parameters/><con:representation type="RESPONSE"><con:mediaType>application/json; charset=utf-8</con:mediaType><con:status>200</con:status><con:params/><con:element xmlns:ns="https://reqres.in/api/users/2">ns:Response</con:element></con:representation><con:request name="Request 1" id="cbf999fa-4592-47c0-8bf6-f86d51d61f22" mediaType="application/json"><con:settings><con:setting id="com.eviware.soapui.impl.wsdl.WsdlRequest@request-headers">&lt;xml-fragment/></con:setting></con:settings><con:endpoint>https://reqres.in</con:endpoint><con:request/><con:originalUri>https://reqres.in/api/users/2</con:originalUri><con:credentials><con:authType>No Authorization</con:authType></con:credentials><con:jmsConfig JMSDeliveryMode="PERSISTENT"/><con:jmsPropertyConfig/><con:parameters/></con:request></con:method></con:resource></con:interface><con:interface xsi:type="con:RestService" id="5cfdae61-0798-467f-a0b4-e241b6ecca85" wadlVersion="http://wadl.dev.java.net/2009/02" name="https://reqres.in" type="rest" xmlns:xsi="http://www.w3.org/2001/XMLSchema-instance"><con:settings/><con:definitionCache type="TEXT" rootPart=""/><con:endpoints><con:endpoint>https://reqres.in</con:endpoint></con:endpoints><con:resource name="Unknown" path="/api/unknown" id="41a78725-d0a0-49c2-8445-317c8ddecabb"><con:settings/><con:parameters/><con:method name="Unknown 1" id="0d6574be-1af2-4721-a1de-3c1d8fb940b8" method="GET"><con:settings/><con:parameters/><con:representation type="RESPONSE"><con:mediaType>application/json; charset=utf-8</con:mediaType><con:status>200</con:status><con:params/><con:element xmlns:unk="https://reqres.in/api/unknown">unk:Response</con:element></con:representation><con:request name="Request 1" id="e943d19e-fc6d-4f9f-b2ce-0d0ef03fe1c2" mediaType="application/json"><con:settings><con:setting id="com.eviware.soapui.impl.wsdl.WsdlRequest@request-headers">&lt;xml-fragment/></con:setting></con:settings><con:endpoint>https://reqres.in</con:endpoint><con:request/><con:originalUri>https://reqres.in/api/unknown</con:originalUri><con:credentials><con:authType>No Authorization</con:authType></con:credentials><con:jmsConfig JMSDeliveryMode="PERSISTENT"/><con:jmsPropertyConfig/><con:parameters/></con:request></con:method></con:resource></con:interface><con:interface xsi:type="con:RestService" id="0962958a-71b1-49a9-af72-d9e8c6404295" wadlVersion="http://wadl.dev.java.net/2009/02" name="https://reqres.in" type="rest" xmlns:xsi="http://www.w3.org/2001/XMLSchema-instance"><con:settings/><con:definitionCache type="TEXT" rootPart=""/><con:endpoints><con:endpoint>https://reqres.in</con:endpoint></con:endpoints><con:resource name="2" path="/api/unknown/2" id="d95980fe-cb13-44f4-adac-ec3e6c18ad6c"><con:settings/><con:parameters/><con:method name="2 1" id="46da017b-e519-4bc0-99f5-f48d5d18b7ad" method="GET"><con:settings/><con:parameters/><con:representation type="RESPONSE"><con:mediaType>application/json; charset=utf-8</con:mediaType><con:status>200</con:status><con:params/><con:element xmlns:ns="https://reqres.in/api/unknown/2">ns:Response</con:element></con:representation><con:request name="Request 1" id="41ce4f94-eb1f-4c8c-a15b-806cabab3767" mediaType="application/json"><con:settings><con:setting id="com.eviware.soapui.impl.wsdl.WsdlRequest@request-headers">&lt;xml-fragment/></con:setting></con:settings><con:endpoint>https://reqres.in</con:endpoint><con:request/><con:originalUri>https://reqres.in/api/unknown/2</con:originalUri><con:credentials><con:authType>No Authorization</con:authType></con:credentials><con:jmsConfig JMSDeliveryMode="PERSISTENT"/><con:jmsPropertyConfig/><con:parameters/></con:request></con:method></con:resource></con:interface><con:interface xsi:type="con:RestService" id="f4ed6543-7190-49d2-8a55-83c768974748" wadlVersion="http://wadl.dev.java.net/2009/02" name="https://reqres.in" type="rest" xmlns:xsi="http://www.w3.org/2001/XMLSchema-instance"><con:settings/><con:definitionCache/><con:endpoints><con:endpoint>https://reqres.in</con:endpoint></con:endpoints><con:resource name="Users" path="/api/users" id="de2a2854-629d-4024-8531-0bb46e01e881"><con:settings/><con:parameters/><con:method name="Users 5" id="9db456a2-f49d-4fb2-9795-4ca15735c69c" method="POST"><con:settings/><con:parameters/><con:representation type="REQUEST"><con:mediaType>application/json</con:mediaType><con:params/></con:representation><con:representation type="RESPONSE"><con:mediaType>application/json; charset=utf-8</con:mediaType><con:status>201 200</con:status><con:params/><con:element xmlns:user="https://reqres.in/api/users">user:Response</con:element></con:representation><con:representation type="REQUEST"><con:mediaType>text/xml</con:mediaType><con:params/></con:representation><con:representation type="REQUEST"><con:mediaType>multipart/form-data</con:mediaType><con:params/></con:representation><con:request name="Request 1" id="271548b7-f9f1-41d5-8fff-f16a471370cf" mediaType="application/json" postQueryString="false"><con:settings><con:setting id="com.eviware.soapui.impl.wsdl.WsdlRequest@request-headers">&lt;xml-fragment/></con:setting></con:settings><con:endpoint>https://reqres.in</con:endpoint><con:request/><con:originalUri>https://reqres.in/api/users</con:originalUri><con:credentials><con:authType>No Authorization</con:authType></con:credentials><con:jmsConfig JMSDeliveryMode="PERSISTENT"/><con:jmsPropertyConfig/><con:parameters/></con:request></con:method></con:resource></con:interface><con:testSuite id="6fa3bdb5-6bcc-49f0-9788-ce3ae56e0ae4" name="TestSuite1"><con:description>TestSuite generated for REST Service [https://reqres.in]</con:description><con:settings/><con:runType>SEQUENTIAL</con:runType><con:testCase id="7bfc0338-6d50-4a86-892e-929da7b7a986" failOnError="true" failTestCaseOnErrors="true" keepSession="false" maxResults="0" name="Users TestCase" searchProperties="true"><con:description>TestCase generated for REST Resource [Users] located at [/api/users]</con:description><con:settings/><con:testStep type="restrequest" name="Users 1 - Request 1" id="7393ee03-75d0-4f94-b446-4d38a5ffcf07"><con:settings/><con:config service="https://reqres.in" resourcePath="/api/users" methodName="Users 1" xsi:type="con:RestRequestStep" xmlns:xsi="http://www.w3.org/2001/XMLSchema-instance"><con:restRequest name="Users 1 - Request 1" id="77b529c1-dd79-4778-a8ec-3080fea36df9" mediaType="application/json"><con:settings><con:setting id="com.eviware.soapui.impl.wsdl.WsdlRequest@request-headers">&lt;xml-fragment/></con:setting></con:settings><con:endpoint>https://reqres.in</con:endpoint><con:request/><con:originalUri>https://reqres.in/api/users</con:originalUri><con:credentials><con:authType>No Authorization</con:authType></con:credentials><con:jmsConfig JMSDeliveryMode="PERSISTENT"/><con:jmsPropertyConfig/><con:parameters><entry key="page" value="2" xmlns="http://eviware.com/soapui/config"/></con:parameters><con:parameterOrder><con:entry>page</con:entry></con:parameterOrder></con:restRequest></con:config></con:testStep><con:testStep type="transfer" name="ValueAdded" id="5ccf2460-3a1c-4815-9f12-d6d8cf5dd4ef"><con:settings/><con:config xsi:type="con:PropertyTransfersStep" xmlns:xsi="http://www.w3.org/2001/XMLSchema-instance"><con:transfers setNullOnMissingSource="true" transferTextContent="true" failOnError="true" ignoreEmpty="false" transferToAll="false" entitize="false" transferChildNodes="false"><con:name>TransferUsers</con:name><con:sourceType>Response</con:sourceType><con:sourceStep>Users 1 - Request 1</con:sourceStep><con:sourcePath>data[5].first_name</con:sourcePath><con:targetType>Request</con:targetType><con:targetStep>User 2 - Request 1</con:targetStep><con:type>JSONPATH</con:type><con:targetTransferType>JSONPATH</con:targetTransferType><con:upgraded>true</con:upgraded></con:transfers></con:config></con:testStep><con:testStep type="restrequest" name="User 2 - Request 1" id="cb44e061-8355-47fa-b6ff-b36202e50d1f"><con:settings/><con:config service="https://reqres.in" resourcePath="/api/users/2" methodName="2 1" xsi:type="con:RestRequestStep" xmlns:xsi="http://www.w3.org/2001/XMLSchema-instance"><con:restRequest name="User 2 - Request 1" id="cbf999fa-4592-47c0-8bf6-f86d51d61f22" mediaType="application/json"><con:settings><con:setting id="com.eviware.soapui.impl.wsdl.WsdlRequest@request-headers">&lt;xml-fragment/></con:setting></con:settings><con:endpoint>https://reqres.in</con:endpoint><con:request>Rachel</con:request><con:originalUri>https://reqres.in/api/users/2</con:originalUri><con:credentials><con:authType>No Authorization</con:authType></con:credentials><con:jmsConfig JMSDeliveryMode="PERSISTENT"/><con:jmsPropertyConfig/><con:parameters/></con:restRequest></con:config></con:testStep><con:testStep type="restrequest" name="User 3 - Request 1" id="0483ab61-2835-4427-8985-04ef68d253b3"><con:settings/><con:config service="https://reqres.in" resourcePath="/api/unknown" methodName="Unknown 1" xsi:type="con:RestRequestStep" xmlns:xsi="http://www.w3.org/2001/XMLSchema-instance"><con:restRequest name="User 3 - Request 1" id="e943d19e-fc6d-4f9f-b2ce-0d0ef03fe1c2" mediaType="application/json"><con:settings><con:setting id="com.eviware.soapui.impl.wsdl.WsdlRequest@request-headers">&lt;xml-fragment/></con:setting></con:settings><con:endpoint>https://reqres.in</con:endpoint><con:request/><con:originalUri>https://reqres.in/api/unknown</con:originalUri><con:credentials><con:authType>No Authorization</con:authType></con:credentials><con:jmsConfig JMSDeliveryMode="PERSISTENT"/><con:jmsPropertyConfig/><con:parameters/></con:restRequest></con:config></con:testStep><con:testStep type="restrequest" name="User 4 - Request 1" id="32e183c7-cd6c-4bb9-ad15-bdb4563b66e0"><con:settings/><con:config service="https://reqres.in" resourcePath="/api/unknown/2" methodName="2 1" xsi:type="con:RestRequestStep" xmlns:xsi="http://www.w3.org/2001/XMLSchema-instance"><con:restRequest name="User 4 - Request 1" id="41ce4f94-eb1f-4c8c-a15b-806cabab3767" mediaType="application/json"><con:settings><con:setting id="com.eviware.soapui.impl.wsdl.WsdlRequest@request-headers">&lt;xml-fragment/></con:setting></con:settings><con:endpoint>https://reqres.in</con:endpoint><con:request>{"page":2,"per_page":6,"total":12,"total_pages":2,"data":[{"id":7,"email":"michael.lawson@reqres.in","first_name":"Michael","last_name":"Lawson","avatar":"https://reqres.in/img/faces/7-image.jpg"},{"id":8,"email":"lindsay.ferguson@reqres.in","first_name":"Lindsay","last_name":"Ferguson","avatar":"https://reqres.in/img/faces/8-image.jpg"},{"id":9,"email":"tobias.funke@reqres.in","first_name":"Tobias","last_name":"Funke","avatar":"https://reqres.in/img/faces/9-image.jpg"},{"id":10,"email":"byron.fields@reqres.in","first_name":"Byron","last_name":"Fields","avatar":"https://reqres.in/img/faces/10-image.jpg"},{"id":11,"email":"george.edwards@reqres.in","first_name":"George","last_name":"Edwards","avatar":"https://reqres.in/img/faces/11-image.jpg"},{"id":12,"email":"rachel.howell@reqres.in","first_name":"Rachel","last_name":"Howell","avatar":"https://reqres.in/img/faces/12-image.jpg"}],"support":{"url":"https://reqres.in/#support-heading","text":"To keep ReqRes free, contributions towards server costs are appreciated!"}}</con:request><con:originalUri>https://reqres.in/api/unknown/2</con:originalUri><con:assertion type="Simple Contains" id="3fe04516-36c3-498e-b7cc-eebcb6012c66" name="Contains"><con:configuration><token>rose</token><ignoreCase>false</ignoreCase><useRegEx>false</useRegEx></con:configuration></con:assertion><con:credentials><con:authType>No Authorization</con:authType></con:credentials><con:jmsConfig JMSDeliveryMode="PERSISTENT"/><con:jmsPropertyConfig/><con:parameters/></con:restRequest></con:config></con:testStep><con:testStep type="transfer" name="Property Transfer" id="05c3e1ae-8c9a-4670-8d5d-63485080f77a"><con:settings/><con:config xsi:type="con:PropertyTransfersStep" xmlns:xsi="http://www.w3.org/2001/XMLSchema-instance"><con:transfers setNullOnMissingSource="true" transferTextContent="true" failOnError="true" ignoreEmpty="false" transferToAll="false" entitize="false" transferChildNodes="false"><con:name>Transfer</con:name><con:sourceType>Response</con:sourceType><con:sourceStep>User 4 - Request 1</con:sourceStep><con:sourcePath>data.name</con:sourcePath><con:targetType>Request</con:targetType><con:targetStep>Users 5 - Request 1</con:targetStep><con:type>JSONPATH</con:type><con:targetTransferType>JSONPATH</con:targetTransferType><con:upgraded>true</con:upgraded></con:transfers></con:config></con:testStep><con:testStep type="restrequest" name="Users 5 - Request 1" id="6433327a-d4f8-4626-acdc-5e0f72228332"><con:settings/><con:config service="https://reqres.in" resourcePath="/api/users" methodName="Users 5" xsi:type="con:RestRequestStep" xmlns:xsi="http://www.w3.org/2001/XMLSchema-instance"><con:restRequest name="Users 5 - Request 1" id="271548b7-f9f1-41d5-8fff-f16a471370cf" mediaType="application/json" postQueryString="false"><con:settings><con:setting id="com.eviware.soapui.impl.wsdl.WsdlRequest@request-headers">&lt;xml-fragment/></con:setting></con:settings><con:endpoint>https://reqres.in</con:endpoint><con:request>fuchsia rose</con:request><con:originalUri>https://reqres.in/api/users</con:originalUri><con:credentials><con:authType>No Authorization</con:authType></con:credentials><con:jmsConfig JMSDeliveryMode="PERSISTENT"/><con:jmsPropertyConfig/><con:parameters/></con:restRequest></con:config></con:testStep><con:testStep type="groovy" name="Groovy Script" id="2b99801f-cdab-4c52-bd6d-6a1d110357f8"><con:settings/><con:config><script>def resp=testRunner.testCase.getTestStepByName("UserList").getPropertyValue('response')

def jsonSlurpur=new groovy.json.JsonSlurper()
def object=jsonSlurpur.parseText(resp)

def value = object.data[4].firstname

testRunner.testCase.gettestStepByName('Properties1').setpropertyValue("user",value)</script></con:config></con:testStep><con:testStep type="properties" name="Properties" id="bee50e9f-fa6a-4540-b0d6-0c3e5929b726"><con:settings/><con:config xsi:type="con:PropertiesStep" saveFirst="true" xmlns:xsi="http://www.w3.org/2001/XMLSchema-instance"><con:properties><con:property><con:name>Name</con:name><con:value>Nirmal Raj</con:value></con:property></con:properties></con:config></con:testStep><con:properties/></con:testCase><con:properties/></con:testSuite><con:properties/><con:wssContainer/><con:oAuth2ProfileContainer/><con:oAuth1ProfileContainer/></con:soapui-project>